"Option","Description"
"Reference Name","The name of the engine. This can be used by code mods to flag out specific engines to do something with. For example the mini turbo exhausts with the INTERNAL_DRAG custom ship module."
"Always Use Player Trail","The engine will always use the player trail. Useful for creating flame based engine effects."
"Ai Trail Width Curve", "Controls the width of the AI trail over it's length. Leave this empty with no key frames to use the game's default curve."
"Use Engine Colors", "Controls whether the game should automatically apply the engine color from the prefab. Disable this if you have a code mod that handles the colors instead. For example the INTERNAL_DRAG custom ship module."
"No Fire On Weapon Impact", "Controls whether the engine will emit fire particles when the ship is hit by a projectile."
"Afterburner Boosts Intensity", "Controls whether using the afterburner will boost the engine colors intensity when used."
"Turbo Boosts Intensity", "Controls whether using the turbo pickup will boost the engine colors intensity when used."
"Pads Boosts Intensity", "Controls whether flying over speed pads (both tille and 3D variants) will boost the engine colors intensity."
"Flare/Trail Alpha Range", "Controls the minimum and maximum alphas that the flare/trail components can have."
"Flutter","Toggles scale fluttering. This rapidly flucuates the trails size along the Flutter Scale axis when enabled."
"Flutter Power Amount/Speed Curves","Controls how the engine power affects the fluttering amount and speed."
"Flutter Speed", "Controls the base flutter speed."
"Flutter Scale", "The axis and amount along that axis that the flutter scaling will affect. If you've configured your trail so Z is forward, you'd enter your flutter scale value in the Z field."
"Scale With Speed", "Controls whether the trail will scale with the ships speed."
"Scale Speed", "The axis and amount along that axis that the trail will scale with speed."
"Scale With Engine Power", "Controls whether t he trail will scale with the ships engine power."
"Engine Power Scale", "The axis and amount along that axis that the trail will scale with the engine power."
"Uv Scroll Speed", "How fast the trail UVs will scroll on each axis."